
#Conquest of Paradise
dlc010 = {
	reason = {
		tooltip_desc = "dlc010_reason_natives"
		tooltip_reason = "dlc010_reason_natives_reason"
		weight = 30
		trigger = {
			capital_scope = {
				continent = north_america
			}
			technology_group = north_american
		}
	}
	reason = {
		tooltip_desc = "dlc010_reason_colonists"
		tooltip_reason = "dlc010_reason_colonists_reason"
		weight = 10
		trigger = {
			OR = {
				tag = ENG
				tag = SCO
				tag = FRA
				tag = CAS
				tag = POR
			}
		}
	}
}

#Wealth of Nations
dlc018 = {
	reason = {
		tooltip_desc = "dlc018_reason_generic"
		tooltip_reason = "dlcXXX_reason_generic_reason"
		weight = 7.5
		trigger = {
			always = yes
		}
	}
	reason = {
		tooltip_desc = "dlc018_reason_generic"
		tooltip_reason = "dlc018_reason_tc_reason"
		weight = 8.5
		trigger = {
			OR = {
				tag = ENG
				tag = SCO
				tag = FRA
				tag = CAS
				tag = POR
			}
		}
	}
	reason = {
		tooltip_desc = "dlc018_reason_kiel_canal"
		tooltip_reason = "dlc018_reason_kiel_canal_reason"
		weight = 12.5
		trigger = {
			OR = {
				tag = DAN
				tag = SHL
				tag = DTT
			}
		}
	}
	reason = {
		tooltip_desc = "dlc018_reason_suez_canal"
		tooltip_reason = "dlc018_reason_suez_canal_reason"
		weight = 12.5
		trigger = {
			tag = MAM
		}
	}
	reason = {
		tooltip_desc = "dlc018_reason_hindu_deity"
		tooltip_reason = "dlc018_reason_hindu_deity_reason"
		weight = 20
		trigger = {
			religion = hinduism
		}
	}
	reason = {
		tooltip_desc = "dlc018_reason_reformed"
		tooltip_reason = "dlc018_reason_reformed_reason"
		weight = 20
		trigger = {
			religion = reformed
		}
	}
	reason = { #Christian not protestant not Pope i.e. you could become Protestant
		tooltip_desc = "dlc018_reason_reformed"
		tooltip_reason = "dlc018_reason_christian_reason"
		weight = 8
		trigger = {
			religion = catholic
			NOT = { tag = PAP }
		}
	}
}

#Res Publica
dlc021 = {
	reason = {
		tooltip_desc = "dlc022_reason_republics"
		tooltip_reason = "dlc022_reason_republics_reason"
		weight = 12.5
		trigger = {
			OR = {
				government = dictatorship
				government = republic
			}
		}
	}
	reason = {
		tooltip_desc = "dlc022_reason_going_dutch"
		tooltip_reason = "dlc022_reason_going_dutch_reason"
		weight = 20
		trigger = {
			OR = {
				primary_culture = dutch
				primary_culture = flemish
				tag = BUR
			}
		}
	}
	reason = {
		tooltip_desc = "dlc022_reason_merchant_republic"
		tooltip_reason = "dlc022_reason_merchant_republic_reason"
		weight = 20
		trigger = {
			has_government_attribute = is_merchant_republic
		}
	}
	reason = {
		tooltip_desc = "dlc022_reason_elective_monarchy"
		tooltip_reason = "dlc022_reason_elective_monarchy_pol_reason"
		weight = 25
		trigger = {
			tag = POL
		}
	}
	reason = {
		tooltip_desc = "dlc022_reason_elective_monarchy"
		tooltip_reason = "dlc022_reason_elective_monarchy_gen_reason"
		weight = 20
		trigger = {
			tag = PLC
		}
	}
}

#Art of War
dlc027 = {
	reason = { #always adds something
		tooltip_desc = "dlc027_reason_generic"
		tooltip_reason = "dlcXXX_reason_generic_reason"
		weight = 7.5
		trigger = {
			always = yes
		}
	}
	reason = { #makes europe more interesting
		tooltip_desc = "dlc027_reason_generic"
		tooltip_reason = "dlc027_reason_generic_europe_reason"
		weight = 12.5
		trigger = {
			capital_scope = {
				continent = europe
				NOT = { region = anatolia_region }
			}
		}
	}
	reason = { #improved Napoleon
		tooltip_desc = "dlc027_reason_french_revolution"
		tooltip_reason = "dlc027_reason_french_revolution_reason"
		weight = 20
		trigger = {
			tag = FRA
		}
	}
	reason = { #improved HRE
		tooltip_desc = "dlc027_reason_hre"
		tooltip_reason = "dlc027_reason_hre_reason"
		weight = 20
		trigger = {
			is_part_of_hre = yes
		}
	}
	reason = { #Sweden can sack Prague
		tooltip_desc = "dlc027_reason_hre"
		tooltip_reason = "dlc027_reason_sweden_reason"
		weight = 12.5
		trigger = {
			tag = SWE
		}
	}
}

#El Dorado
dlc033 = {
	reason = { #Aztecs
		tooltip_desc = "dlc033_reason_aztec"
		tooltip_reason = "dlc033_reason_aztec_reason"
		weight = 30
		trigger = {
			religion = nahuatl
		}
	}
	reason = { #Mayans
		tooltip_desc = "dlc033_reason_maya"
		tooltip_reason = "dlc033_reason_maya_reason"
		weight = 30
		trigger = {
			religion = mesoamerican_religion
		}
	}
	reason = { #Incans
		tooltip_desc = "dlc033_reason_inca"
		tooltip_reason = "dlc033_reason_inca_reason"
		weight = 30
		trigger = {
			religion = inti
		}
	}
	reason = { #Colonial countries
		tooltip_desc = "dlc033_reason_colonists"
		tooltip_reason = "dlc033_reason_colonists_reason"
		weight = 15
		trigger = {
			OR = {
				tag = ENG
				tag = SCO
				tag = FRA
				tag = CAS
				tag = POR
			}
		}
	}
}

#Common Sense
dlc039 = {
	reason = { #General
		tooltip_desc = "dlc039_reason_generic"
		tooltip_reason = "dlcXXX_reason_generic_reason"
		weight = 7.5
		trigger = {
			always = yes
		}
	}
	reason = { #Protestant
		tooltip_desc = "dlc039_reason_protestant"
		tooltip_reason = "dlc039_reason_protestant_reason"
		weight = 20
		trigger = {
			religion = protestant
		}
	}
	reason = { #Christian not protestant not Pope i.e. you could become Protestant
		tooltip_desc = "dlc039_reason_protestant"
		tooltip_reason = "dlc039_reason_christian_reason"
		weight = 10
		trigger = {
			religion = catholic
			NOT = { tag = PAP }
		}
	}
	reason = { #Buddhist
		tooltip_desc = "dlc039_reason_buddhist"
		tooltip_reason = "dlc039_reason_buddhist_reason"
		weight = 30
		trigger = {
			OR = {
				religion = buddhism
				religion = vajrayana
				religion = mahayana
			}
		}
	}
	reason = { #England and USA start with Parliaments
		tooltip_desc = "dlc039_reason_parliament"
		tooltip_reason = "dlc039_reason_parliament_reason"
		weight = 12.5
		trigger = {
			OR = {
				tag = ENG
				tag = USA
			}
		}
	}
	reason = { #Theocracies get stuff
		tooltip_desc = "dlc039_reason_theocracy"
		tooltip_reason = "dlc039_reason_theocracy_reason"
		weight = 20
		trigger = {
			government = theocracy
		}
	}
	reason = { #Free Cities get stuff
		tooltip_desc = "dlc039_reason_free_city"
		tooltip_reason = "dlc039_reason_free_city_reason"
		weight = 20
		trigger = { #test this works, otherwise will have to make a list (not keen)
			has_government_attribute = free_city
		}
	}
	reason = { #HRE mechanics
		tooltip_desc = "dlc039_reason_free_city"
		tooltip_reason = "dlc039_reason_hre_reason"
		weight = 10
		trigger = {
			is_part_of_hre = yes
		}
	}
}

#Cossacks
dlc046 = {
	reason = { #Zaporozhie
		tooltip_desc = "dlc046_reason_zaz_are_cossacks"
		tooltip_reason = "dlc046_reason_zaz_are_cossacks_reason"
		weight = 50
		trigger = {
			tag = ZAZ
		}
	}
	reason = { #Steppe General
		tooltip_desc = "dlc046_reason_steppe"
		tooltip_reason = "dlc046_reason_steppe_reason"
		weight = 20
		trigger = {
			any_owned_province = {
				OR = {
					region = russia_region
					region = ruthenia_region
					region = crimea_region
					region = ural_region
					region = central_asia_region
				}
			}
			NOT = { tag = SWE }
		}
	}
	reason = { #Tengri get stuff
		tooltip_desc = "dlc046_reason_tengri"
		tooltip_reason = "dlc046_reason_tengri_reason"
		weight = 30
		trigger = {
			religion = tengri_pagan_reformed
		}
	}
	reason = { #Hordes get stuff
		tooltip_desc = "dlc046_reason_horde"
		tooltip_reason = "dlc046_reason_horde_reason"
		weight = 21
		trigger = {
			is_nomad = yes
		}
	}
}

#Mare Nostrum
dlc055 = {
	reason = { #General (don't mention naval)
		tooltip_desc = "dlc055_reason_generic"
		tooltip_reason = "dlcXXX_reason_generic_reason"
		weight = 6.5
		trigger = {
			OR = {
				NOT = {
					num_of_owned_provinces_with = {
						value = 3
						has_port = yes
					}
				}
				#why don't we have a primitives trigger again?
				AND = {
					capital_scope = {
						OR = {
							continent = north_america
							continent = south_america
							continent = africa
						}
					}
					NOT = { religion_group = christian }
					NOT = { religion_group = muslim }
				}
			}
		}
	}
	reason = { #General (do mention naval)
		tooltip_desc = "dlc055_reason_generic_naval"
		tooltip_reason = "dlc055_reason_generic_naval_reason"
		weight = 10
		trigger = {
			num_of_owned_provinces_with = {
				value = 3
				has_port = yes
			}
			#why don't we have a primitives trigger again?
			OR = {
				NOT = {
					capital_scope = {
						OR = {
							continent = north_america
							continent = south_america
							continent = africa
						}
					}
				}
				religion_group = christian
				religion_group = muslim
			}
		}
	}
	reason = { #Slave Raids
		tooltip_desc = "dlc055_reason_slave_raids"
		tooltip_reason = "dlc055_reason_slave_raids_reason"
		weight = 20
		trigger = {
			OR = {
				tag = TUN
				tag = MOR
				tag = JAJ
				tag = KNI
				has_idea_group = berber_ideas
			}
		}
	}
	reason = { #Merchant Republics can annoy everyone else by starting trade leagues
		tooltip_desc = "dlc055_reason_merchants"
		tooltip_reason = "dlc055_reason_merchants_reason"
		weight = 20
		trigger = {
			has_government_attribute = is_merchant_republic
		}
	}
}

#Rights of Man
dlc060 = {
	reason = { #General (RoM is just awesome)
		tooltip_desc = "dlc060_reason_generic"
		tooltip_reason = "dlcXXX_reason_generic_reason"
		weight = 12.5
		trigger = {
			always = yes
		}
	}
	reason = { #Ottomans get some features
		tooltip_desc = "dlc060_reason_ottomans"
		tooltip_reason = "dlc060_reason_ottomans_reason"
		weight = 35
		trigger = {
			tag = TUR
		}
	}
	reason = { #Fetishist mechanics
		tooltip_desc = "dlc060_reason_fetishism"
		tooltip_reason = "dlc060_reason_fetishism_reason"
		weight = 30
		trigger = {
			religion = shamanism
		}
	}
	reason = { #Coptic mechanics
		tooltip_desc = "dlc060_reason_coptic"
		tooltip_reason = "dlc060_reason_coptic_reason"
		weight = 30
		trigger = {
			religion = coptic
		}
	}
	reason = { #Prussia get some features
		tooltip_desc = "dlc060_reason_prussia"
		tooltip_reason = "dlc060_reason_prussia_reason2"
		weight = 30
		trigger = {
			OR = {
				tag = BRA
				tag = DNZ
			}
		}
	}
	reason = { #Prussia get some features
		tooltip_desc = "dlc060_reason_prussia"
		tooltip_reason = "dlc060_reason_prussia_reason2"
		weight = 20
		trigger = {
			tag = TEU
		}
	}
	reason = { #Prussia get some features
		tooltip_desc = "dlc060_reason_prussia"
		tooltip_reason = "dlc060_reason_prussia_reason"
		weight = 40
		trigger = {
			tag = PRU
		}
	}
}

#Mandate of Heaven
dlc066 = {
	reason = { #General (historical ages)
		tooltip_desc = "dlc066_reason_generic"
		tooltip_reason = "dlcXXX_reason_generic_reason"
		weight = 3.5
		trigger = {
			always = yes
		}
	}
	reason = { #Qing/Ming
		tooltip_desc = "dlc066_reason_china"
		tooltip_reason = "dlc066_reason_emperor_reason"
		weight = 50
		trigger = {
			OR = {
				tag = QNG
				tag = MNG
			}
		}
	}
	reason = { #China (enough said)
		tooltip_desc = "dlc066_reason_china"
		tooltip_reason = "dlc066_reason_china_reason"
		weight = 40
		trigger = {
			capital_scope = {
				culture_group = east_asian
			}
		}
	}
	reason = { #Japan
		tooltip_desc = "dlc066_reason_japan"
		tooltip_reason = "dlc066_reason_japan_reason"
		weight = 40
		trigger = {
			capital_scope = {
				region = japan_region
			}
		}
	}
	reason = { #Manchu
		tooltip_desc = "dlc066_reason_manchu"
		tooltip_reason = "dlc066_reason_manchu_reason"
		weight = 55
		trigger = {
			capital_scope = {
				region = manchuria_region
			}
		}
	}
	reason = { #East Asia general area
		tooltip_desc = "dlc066_reason_east_asia_generic"
		tooltip_reason = "dlc066_reason_east_asia_generic_reason"
		weight = 30
		trigger = {
			capital_scope = {
				OR = {
					region = mongolia_region
					region = korea_region
					region = indo_china_region
					region = burma_region
				}
			}
		}
	}
}

#Third Rome
dlc072 = {
	reason = { #Russia
		tooltip_desc = "dlc072_reason_russia"
		tooltip_reason = "dlc072_reason_russia_reason"
		weight = 50
		trigger = {
			OR = {
				primary_culture = uralic
				culture_group = east_slavic
			}
		}
	}
	reason = { #Orthodox
		tooltip_desc = "dlc072_reason_orthodox"
		tooltip_reason = "dlc072_reason_orthodox_reason"
		weight = 25
		trigger = {
			religion = orthodox
		}
	}
}

#Cradle of Civilization
dlc077 = {
	reason = { #Muslim generic
		tooltip_desc = "dlc077_reason_muslim"
		tooltip_reason = "dlcXXX_reason_muslim_reason"
		weight = 12.5
		trigger = {
			religion_group = muslim
			NOT = {
				culture_group = turko_semitic
				culture_group = iranian
			}
		}
	}
	reason = { #Middle East generic
		tooltip_desc = "dlc077_reason_middle_east"
		tooltip_reason = "dlc077_reason_middle_east_reason"
		weight = 12.5
		trigger = {
			OR = {
				culture_group = turko_semitic
				culture_group = iranian
			}
		}
	}
	reason = { #Ottoman stuff
		tooltip_desc = "dlc077_reason_ottoman"
		tooltip_reason = "dlc077_reason_ottoman_reason"
		weight = 13
		trigger = {
			tag = TUR
		}
	}
	reason = { #Mamluk stuff
		tooltip_desc = "dlc077_reason_mamluks"
		tooltip_reason = "dlc077_reason_mamluks_reason"
		weight = 40
		trigger = {
			tag = MAM
		}
	}
	reason = { #Timurid stuff
		tooltip_desc = "dlc077_reason_tims"
		tooltip_reason = "dlc077_reason_tims_reason"
		weight = 40
		trigger = {
			OR = {
				tag = TIM
				is_subject_of = TIM
			}
		}
	}
	reason = { #Can form Persia
		tooltip_desc = "dlc077_reason_persia"
		tooltip_reason = "dlc077_reason_persia_reason"
		weight = 30
		trigger = {
			OR = {
				culture_group = iranian
				primary_culture = azerbaijani
			}
		}
	}
	reason = { #Ardabil is a Feudal Theocracy
		tooltip_desc = "dlc077_reason_feudal_theocracy"
		tooltip_reason = "dlc077_reason_feudal_theocracy_reason"
		weight = 50
		trigger = {
			tag = ARL
		}
	}
	reason = { #Tribal Federations
		tooltip_desc = "dlc077_reason_tribal_federation"
		tooltip_reason = "dlc077_reason_tribal_federation_reason"
		weight = 40
		trigger = {
			OR = {
				tag = QAR
				tag = AKK
			}
		}
	}
}

#Rule Britannia
dlc084 = {
	reason = { #Adds coal, innovativeness industrial revolution stuff
		tooltip_desc = "dlc084_reason_really_generic"
		tooltip_reason = "dlc084_reason_really_generic_reason"
		weight = 3.5
		trigger = {
			always = yes
		}
	}
	reason = { #[Root.GetName] gets new missions
		tooltip_desc = "dlc084_reason_generic"
		tooltip_reason = "dlc084_reason_generic_reason"
		weight = 35
		trigger = {
			capital_scope = {
				region = british_isles_region
			}
		}
	}
	reason = { #england
		tooltip_desc = "dlc084_reason_we_rule_the_waves"
		tooltip_reason = "dlc084_reason_we_rule_the_waves_reason"
		weight = 50
		trigger = {
			OR = {
				tag = ENG
				tag = GBR
			}
		}
	}
}

#Dharma
dlc090 = {
	reason = { #Government stuff
		tooltip_desc = "dlc090_reason_generic"
		tooltip_reason = "dlcXXX_reason_generic_reason"
		weight = 10
		trigger = {
			always = yes
		}
	}
	reason = { #TCs + above
		tooltip_desc = "dlc090_reason_trade_companies"
		tooltip_reason = "dlc090_reason_trade_companies_reason"
		weight = 15
		trigger = {
			OR = {
				tag = ENG
				tag = SCO
				tag = FRA
				tag = CAS
				tag = POR
				tag = NED
			}
		}
	}
	reason = { #Indian
		tooltip_desc = "dlc090_reason_indian"
		tooltip_reason = "dlcXXX_reason_india_reason"
		weight = 50
		trigger = {
			capital_scope = {
				superregion = india_superregion
			}
		}
	}
	reason = { #likely to want to form Mughals
		tooltip_desc = "dlc090_reason_mughals"
		tooltip_reason = "dlc090_reason_mughals_reason"
		weight = 15
		trigger = {
			OR = {
				tag = TIM
				tag = TRS
				tag = SIS
				tag = BAL
				tag = AFG
			}
		}
	}
	reason = { #Adds mission tree
		tooltip_desc = "dlc090_reason_missions_tau"
		tooltip_reason = "dlc090_reason_missions_tau_reason"
		weight = 35
		trigger = {
			tag = TAU
		}
	}
	reason = { #Adds mission tree
		tooltip_desc = "dlc090_reason_missions_tim"
		tooltip_reason = "dlc090_reason_missions_tim_reason"
		weight = 20
		trigger = {
			tag = TIM
		}
	}
}

#Golden Century
dlc095 = {
	reason = { #Spain stuff
		tooltip_desc = "dlc095_reason_iberian"
		tooltip_reason = "dlc095_reason_iberian_reason"
		weight = 30
		trigger = {
			capital_scope = { region = iberia_region }
		}
	}
	reason = { #Can form Pirates
		tooltip_desc = "dlc095_reason_pirates"
		tooltip_reason = "dlc095_reason_pirates_reason"
		weight = 25
		trigger = {
			OR = {
				government = monarchy
				government = republic
			}
#			NOT = { num_of_cities = 7 }
			NOT = {
				any_owned_province = {
					NOT = {
						region = maghreb_region
						province_is_on_an_island = yes
					}
				}
			}
			OR = {
				NOT = { capital_scope = { region = japan_region } }
				tag = SOO
			}
		}
	}
	reason = { #North Africans get stuff anyway
		tooltip_desc = "dlc095_reason_maghreb"
		tooltip_reason = "dlc095_reason_maghreb_reason"
		weight = 26
		trigger = {
			capital_scope = { region = maghreb_region }
		}
	}
	reason = { #Have decision to form pirates straight away
		tooltip_desc = "dlc095_reason_pirates"
		tooltip_reason = "dlc095_reason_pirates_decision_reason"
		weight = 50
		trigger = {
			tag = PLB
		}
	}
}

# Emperor
dlc101 = {
	reason = { # pope
		tooltip_desc = "dlc101_reason_pope"
		tooltip_reason = "dlc101_reason_pope_reason"
		weight = 100
		trigger = {
			tag = PAP
		}
	}
	reason = { # holy roman empire
		tooltip_desc = "dlc101_reason_hre_emperor"
		tooltip_reason = "dlc101_reason_hre_emperor_reason"
		weight = 100
		trigger = {
			is_emperor = yes
		}
	}
	reason = { # revolution and missions
		tooltip_desc = "dlc101_reason_french_revolution" # needs new loc
		tooltip_reason = "dlc027_reason_french_revolution_reason" # no new loc
		weight = 30
		trigger = {
			tag = FRA
		}
	}
	reason = { # mission tree
		tooltip_desc = "dlc101_reason_venice"
		tooltip_reason = "dlc101_reason_venice_reason"
		weight = 28
		trigger = {
			tag = VEN
		}
	}
	reason = { # catholic
		tooltip_desc = "dlc101_reason_catholic"
		tooltip_reason = "dlc101_reason_catholic_reason"
		weight = 20
		trigger = {
			religion = catholic
		}
	}
	reason = { # burgundy
		tooltip_desc = "dlc101_reason_burgundy"
		tooltip_reason = "dlc101_reason_burgundy_reason"
		weight = 30
		trigger = {
			tag = BUR
		}
	}
}

# Leviathan
dlc106 = {
	reason = { #North American tribes new mechanics (totemism, migration), events and missions
		tooltip_desc = "dlc106_reason_natives"
		tooltip_reason = "dlc106_reason_natives_reason"
		weight = 50
		trigger = {
			capital_scope = {
				continent = north_america
			}
			technology_group = north_american
		}
	}
	reason = { #New Colonial Nations types
		tooltip_desc = "dlc106_reason_colonists"
		tooltip_reason = "dlc106_reason_colonists_reason"
		weight = 20
		trigger = {
			OR = {
				tag = ENG
				tag = SCO
				tag = FRA
				tag = CAS
				tag = POR
				tag = NED
			}
		}
	}
	reason = { #East Indies Superregion new content (missions, events, Mandala government, disasters, unit models etc)
		tooltip_desc = "dlc106_reason_east_indies"
		tooltip_reason = "dlc106_reason_east_indies_reason"
		weight = 100
		trigger = {
			capital_scope = {
				superregion = east_indies_superregion
			}
		}
	}	
	reason = { #Oceania new content (unit models, tags, flags, ideas, etc)
		tooltip_desc = "dlc106_reason_oceania"
		tooltip_reason = "dlc106_reason_oceania_reason"
		weight = 30
		trigger = {
			capital_scope = {
				continent = oceania
			}
		}
	}
}

# Origins
dlc110 = {
	reason = { # Mission trees and unique content
		tooltip_desc = "dlc110_reason_mission_trees"
		tooltip_reason = "dlc110_reason_mission_trees_reason"
		weight = 100
		trigger = {
			OR = {
				tag = SON
				Tag = MAL
				Tag = ETH
				Tag = AJU
				tag = ZAN
				tag = ZIM
				tag = KON
			}
		}
	}
	reason = {
		tooltip_desc = "dlc110_reason_new_music"
		tooltip_reason = "dlc110_reason_new_music_reason"
		weight = 30
		trigger = {
			capital_scope = {
				continent = africa
			}
		}
	}
}
